<?xml version="1.0" encoding="UTF-8" standalone="no"?>
<svg
   version="1.1"
   viewBox="0 0 200 200"
   id="svg157"
   sodipodi:docname="favicon.svg"
   inkscape:version="1.3.2 (091e20ef0f, 2023-11-25)"
   width="200"
   height="200"
   xmlns:inkscape="http://www.inkscape.org/namespaces/inkscape"
   xmlns:sodipodi="http://sodipodi.sourceforge.net/DTD/sodipodi-0.dtd"
   xmlns="http://www.w3.org/2000/svg"
   xmlns:svg="http://www.w3.org/2000/svg">
  <defs
     id="defs157" />
  <sodipodi:namedview
     id="namedview157"
     pagecolor="#505050"
     bordercolor="#eeeeee"
     borderopacity="1"
     inkscape:showpageshadow="0"
     inkscape:pageopacity="0"
     inkscape:pagecheckerboard="0"
     inkscape:deskcolor="#505050"
     showguides="false"
     showgrid="false"
     inkscape:zoom="1.2487948"
     inkscape:cx="124.92044"
     inkscape:cy="115.31118"
     inkscape:window-width="1920"
     inkscape:window-height="1048"
     inkscape:window-x="0"
     inkscape:window-y="0"
     inkscape:window-maximized="1"
     inkscape:current-layer="svg157" />
  <g
     id="g1"
     transform="translate(-247.97693,-60.026058)">
    <path
       fill="#c20118"
       d="m 323.46488,93.046033 q -1.37,-1.04 -3.17,-0.6 -0.46,0.11 -0.81,0.45 -0.36,0.35 -1.13,0.58 -5.38,1.64 -10.57,5.66 -0.69,0.54 -1.18,1.179997 -0.51,0.66 -1.24,1.08 c -1,0.58 -1.68,1.52 -2.34,2.42 q -0.36,0.49 -0.95,0.35 c -1.56,-0.36 -3.15,0.83 -3.34,2.35 q -0.21,1.58 -1.83,2.42 a 0.46,0.46 0 0 0 -0.18,0.66 q 0.38,0.58 0.85,0.16 -5.71,5.6 -7.9,8.84 -11.31,16.67 -13.71,35.97 -0.98,7.82 -0.39,20.07 c 0.11,2.24 1.34,3.96 1.53,6.19 q 0.3,3.44 1.68,6.67 6.62,15.46 16.83,24.48 0.44,0.38 0.02,0.78 l -17.52,17.1 a 1,1 0 0 1 -1.53,-0.15 q -3.49,-5.15 -8.28,-10.07 c -1.97,-2.03 -3.77,-4.38 -5.2,-6.85 q -4.81,-8.28 -7.21,-14.18 -2.35,-5.79 -4.95,-14.83 -1.84,-6.41 -1.98,-11.67 -0.24,-9.27 -0.12,-18.83 0.09,-7.83 2.77,-17.22 5.66,-19.86 17.84,-36.429997 0.68,1.249997 1.77,-1.1 0.21,-0.46 0.64,-0.72 1.85,-1.11 3.08,-3.16 1.04,-1.74 2.66,-2.86 1.7,-1.16 3.26,-2.39 0.8,-0.63 0.26,0.24 -0.42,0.68 -1.04,1.05 -0.84,0.51 -1.1,1.45 -0.18,0.66 -0.81,0.92 -0.78,0.33 -0.74,1.14 a 1.42,1.44 65.3 0 1 -0.42,1.1 q -0.83,0.83 -1.33,1.91 -0.51,1.09 -1.45,1.95 -1.48,1.359997 -2.79,2.789997 -0.94,1.02 -1.54,2.24 -0.74,1.51 -1.94,2.63 -0.78,0.73 -1.28,1.65 c -0.68,1.25 -1.6,2.33 -2.07,3.66 q -0.36,1.01 0.36,0.21 1.42,-1.55 2.47,-3.45 0.92,-1.68 2.09,-3.08 4.15,-4.97 8.4,-9.519997 0.29,-0.31 0.29,-0.73 v -0.54 q 0,-0.49 0.32,-0.86 1.61,-1.85 2.59,-3.26 0.6,-0.86 1.25,-2.75 0.61,-1.76 1.83,-2.52 5.97,-3.72 8.63,-6.1 3.41,-3.07 7.66,-4.06 1.86,-0.43 3.55,-1.3 4.87,-2.51 9.64,-5.57 0.5,-0.33 1.09,-0.21 2.93,0.58 4.72,-1.34 0.34,-0.37 0.83,-0.47 3.06,-0.63 5.69,-1.79 1.31,-0.57 2.76,-0.39 a 0.95,0.97 84.3 0 0 1.05,-1.25 q -0.06,-0.17 -0.74,-0.31 c 9.96,-1.49 20.31,-1.35 29.72,-0.68 6.35,0.46 12.22,2.47 18.26,3.97 q 14.46,3.6 26.36,11.94 17.5,12.26 28.81,29.439997 c 5.97,9.05 9.12,18.74 12.23,29.17 q 1.98,6.62 2.29,11.74 0.65,10.81 0.2,21.87 -0.25,6.12 -2.23,12.94 c -3.23,11.19 -7.36,22.12 -13.96,31.57 q -4.74,6.78 -12.45,15.1 a 0.97,0.97 0 0 1 -1.55,-0.18 c -0.93,-1.68 -1.86,-3.32 -3.32,-4.63 q -6.04,-5.46 -11.34,-10.99 -1.32,-1.38 -3.06,-2.36 a 1.01,1 39.1 0 1 -0.17,-1.64 q 2.2,-1.89 4.04,-4.12 7.77,-9.49 13.48,-23.11 9.39,-22.43 1.7,-46.81 c -6,-19.06 -20.49,-32.96 -38.1,-41.939997 -17.6,-8.97 -38.38,-7.96 -56.54,-1.07 z"
       id="path101" />
    <path
       fill="#4a1212"
       d="m 329.09488,62.836033 q 0.68,0.14 0.74,0.31 a 0.95,0.97 84.3 0 1 -1.05,1.25 q -1.45,-0.18 -2.76,0.39 -2.63,1.16 -5.69,1.79 -0.49,0.1 -0.83,0.47 -1.79,1.92 -4.72,1.34 -0.59,-0.12 -1.09,0.21 -4.77,3.06 -9.64,5.57 -1.69,0.87 -3.55,1.3 -4.25,0.99 -7.66,4.06 -2.66,2.38 -8.63,6.1 -1.22,0.76 -1.83,2.52 -0.65,1.89 -1.25,2.75 -0.98,1.41 -2.59,3.26 -0.32,0.37 -0.32,0.86 v 0.54 q 0,0.42 -0.29,0.73 -4.25,4.549997 -8.4,9.519997 -1.17,1.4 -2.09,3.08 -1.05,1.9 -2.47,3.45 -0.72,0.8 -0.36,-0.21 c 0.47,-1.33 1.39,-2.41 2.07,-3.66 q 0.5,-0.92 1.28,-1.65 1.2,-1.12 1.94,-2.63 0.6,-1.22 1.54,-2.24 1.31,-1.43 2.79,-2.789997 0.94,-0.86 1.45,-1.95 0.5,-1.08 1.33,-1.91 a 1.42,1.44 65.3 0 0 0.42,-1.1 q -0.04,-0.81 0.74,-1.14 0.63,-0.26 0.81,-0.92 0.26,-0.94 1.1,-1.45 0.62,-0.37 1.04,-1.05 0.54,-0.87 -0.26,-0.24 -1.56,1.23 -3.26,2.39 -1.62,1.12 -2.66,2.86 -1.23,2.05 -3.08,3.16 -0.43,0.26 -0.64,0.72 -1.09,2.349997 -1.77,1.1 17.31,-23.23 44.39,-32.62 4.62,-1.6 15.25,-4.17 z"
       id="path107"
       style="fill:#c20118;fill-opacity:1" />
    <path
       fill="#4a1212"
       d="m 323.46488,93.046033 q -14.5,6.12 -25.89,16.709997 -0.47,0.42 -0.85,-0.16 a 0.46,0.46 0 0 1 0.18,-0.66 q 1.62,-0.84 1.83,-2.42 c 0.19,-1.52 1.78,-2.71 3.34,-2.35 q 0.59,0.14 0.95,-0.35 c 0.66,-0.9 1.34,-1.84 2.34,-2.42 q 0.73,-0.42 1.24,-1.08 0.49,-0.639997 1.18,-1.179997 5.19,-4.02 10.57,-5.66 0.77,-0.23 1.13,-0.58 0.35,-0.34 0.81,-0.45 1.8,-0.44 3.17,0.6 z"
       id="path115"
       style="fill:#c20118;fill-opacity:1" />
    <path
       fill="#ffeb6c"
       d="m 327.82488,231.84603 q 0.11,-0.38 0.38,-0.65 0.38,-0.37 0.9,-0.29 2.89,0.44 6.06,1.16 c 9.73,2.19 18.79,1.49 28.45,0.83 a 3.42,3.42 0 0 1 3.5,2.42 l 6.05,20.05 q 0.17,0.57 -0.4,0.72 -5.25,1.46 -11.65,1.84 c -14.21,0.86 -25.75,0.66 -38.49,-2.05 q -1.21,-0.26 -0.9,-1.46 c 0.71,-2.71 1.64,-5.43 2.15,-8.22 q 1.3,-6.99 3.68,-13.49 a 2.04,8.56 4.7 0 0 0.27,-0.86 z"
       id="path129" />
  </g>
</svg>
